…
#> 
#> ── Inputs
#> Number of variables by role
#> outcome: 1
#> image:   1
#> 
#> ── Training information
#> Training data contained 600 data points and no incomplete rows.
#> 
#> ── Operations
#> • Gaussian blurring of: <none> | Trained
#> • persistent features from a cubical filtration of: <none> | Trained
#> • persistence landscape of: <none> | Trained
summary(mnist_prep)
#> # A tibble: 50 × 4
#>    variable     type      role      source  
#>    <chr>        <list>    <chr>     <chr>   
#>  1 digit        <chr [1]> image     original
#>  2 label        <chr [3]> outcome   original
#>  3 digit_pl_1_1 <chr [2]> predictor derived 
#>  4 digit_pl_1_2 <chr [2]> predictor derived 
#>  5 digit_pl_1_3 <chr [2]> predictor derived 
#>  6 digit_pl_1_4 <chr [2]> predictor derived 
#>  7 digit_pl_1_5 <chr [2]> predictor derived 
#>  8 digit_pl_1_6 <chr [2]> predictor derived 
#>  9 digit_pl_1_7 <chr [2]> predictor derived 
#> 10 digit_pl_1_8 <chr [2]> predictor derived 
#> # ℹ 40 more rows
```

And we can inspect the result of applying the prepared recipe to the training data:


``` r
mnist_rec |> 
  prep() |> 
  bake(new_data = mnist_train)
#> # A tibble: 600 × 50
#>    digit  label digit_pl_1_1 digit_pl_1_2 digit_pl_1_3 digit_pl_1_4 digit_pl_1_5
#>    <list> <fct>        <dbl>        <dbl>        <dbl>        <dbl>        <dbl>
#>  1 <PHom> 1                0            0         3.15       20.2          24.4 
#>  2 <PHom> 6                0            0         0           0             3.87
#>  3 <PHom> 6                0            0         0           0            13.4 
#>  4 <PHom> 2                0            0         0           0            15.5 
#>  5 <PHom> 7                0            0         0           0             0   
#>  6 <PHom> 9                0            0         0           0            10.0 
#>  7 <PHom> 2                0            0         5.49       22.5          39.5 
#>  8 <PHom> 0                0            0         0           0.233        16.1 
#>  9 <PHom> 4                0            0         0           9.77         26.8 
#> 10 <PHom> 3                0            0         0           1.05         18.1 
#> # ℹ 590 more rows
#> # ℹ 43 more variables: digit_pl_1_6 <dbl>, digit_pl_1_7 <dbl>,
#> #   digit_pl_1_8 <dbl>, digit_pl_1_9 <dbl>, digit_pl_1_10 <dbl>,
#> #   digit_pl_1_11 <dbl>, digit_pl_1_12 <dbl>, digit_pl_1_13 <dbl>,
#> #   digit_pl_1_14 <dbl>, digit_pl_1_15 <dbl>, digit_pl_1_16 <dbl>,
#> #   digit_pl_2_1 <dbl>, digit_pl_2_2 <dbl>, digit_pl_2_3 <dbl>,
#> #   digit_pl_2_4 <dbl>, digit_pl_2_5 <dbl>, digit_pl_2_6 <dbl>, …
```
…
To evaluate the model, we generate predictions for the testing set and compare them to the true labels.
Because accuracy is a coarse metric for a 10-value classification task, we examine the confusion matrix to get a sense of what errors are most common.


``` r
mnist_fit |> 
  predict(new_data = bake(prep(mnist_rec), new_data = mnist_test)) |> 
  bind_cols(select(mnist_test, label)) |> 
  print() -> mnist_pred
#> # A tibble: 100 × 2
#>    .pred_class label
#>    <fct>       <fct>
#>  1 5           0    
#>  2 4           1    
#>  3 1           4    
#>  4 1           1    
#>  5 1           2    
#>  6 2           0    
#>  7 1           4    
#>  8 6           9    
#>  9 3           6    
#> 10 7           0    
#> # ℹ 90 more rows
…
Note that all three require finalization; like the number of randomly sampled predictors for each tree in a random forest, their ranges should not be guessed but must be determined from the content of the data.
In fact, the persistence landscape hyperparameters must be determined from columns derived by the first two steps from the input columns, not from the input columns themselves.
For this reason only, we train the recipe with some intuitive values in order to obtain these derived columns for tuning purposes:


``` r
mnist_rec |> 
  finalize_recipe(parameters = list(blur_sd = 8, pl_deg = 0, pl_lev = 3)) |> 
  prep() |> 
  bake(new_data = mnist_train) ->
  mnist_bake
print(mnist_bake)
#> # A tibble: 600 × 50
#>    digit  label digit_pl_1_1 digit_pl_1_2 digit_pl_1_3 digit_pl_1_4 digit_pl_1_5
#>    <list> <fct>        <dbl>        <dbl>        <dbl>        <dbl>        <dbl>
#>  1 <PHom> 1                0         5.19         0            0               0
#>  2 <PHom> 6                0         0            3.85         8.77            0
#>  3 <PHom> 6                0         0           15.2          0               0
#>  4 <PHom> 2                0         0            0           13.2             0
#>  5 <PHom> 7                0         0            5.33         3.96            0
#>  6 <PHom> 9                0         0            7.97        11.3             0
#>  7 <PHom> 2                0         0            6.87         0               0
#>  8 <PHom> 0                0         0            9.98         0               0
#>  9 <PHom> 4                0         0            5.14         0               0
#> 10 <PHom> 3                0         0           11.1          0               0
#> # ℹ 590 more rows
#> # ℹ 43 more variables: digit_pl_1_6 <dbl>, digit_pl_1_7 <dbl>,
#> #   digit_pl_1_8 <dbl>, digit_pl_1_9 <dbl>, digit_pl_1_10 <dbl>,
#> #   digit_pl_1_11 <dbl>, digit_pl_1_12 <dbl>, digit_pl_1_13 <dbl>,
#> #   digit_pl_1_14 <dbl>, digit_pl_1_15 <dbl>, digit_pl_1_16 <dbl>,
#> #   digit_pl_2_1 <dbl>, digit_pl_2_2 <dbl>, digit_pl_2_3 <dbl>,
#> #   digit_pl_2_4 <dbl>, digit_pl_2_5 <dbl>, digit_pl_2_6 <dbl>, …
```
…
The resulting RF correctly classifies roughly half of the images "out of bag"---not great, but much better than the model using intuited hyperparameter values (and than pure chance).
(Note also that the `blur` standard deviation is lower than originally defaulted to.)
As before, we can look to the confusion matrix for insights into the sources of error:


``` r
mnist_fit |> 
  predict(new_data = bake(mnist_fin, new_data = mnist_train)) |> 
  bind_cols(select(mnist_train, label)) |> 
  print() -> mnist_pred
#> # A tibble: 600 × 2
#>    .pred_class label
#>    <fct>       <fct>
#>  1 1           1    
#>  2 6           6    
#>  3 6           6    
#>  4 2           2    
#>  5 7           7    
#>  6 9           9    
#>  7 2           2    
#>  8 0           0    
#>  9 4           4    
#> 10 3           3    
#> # ℹ 590 more rows
…
Among the most-confused digits in previous runs of these experiments are $1$ and $7$, $2$ and $5$, and $3$ and $5$. (The results above should be similar but will depend somewhat on the state of the random number generator.) This is more in keeping with the topological similarities of the digits, though geometry is also clearly playing a role.

Finally, we evaluate the final model on the testing set---the holdout data from the original partition.


``` r
mnist_fit |> 
  predict(new_data = bake(mnist_fin, new_data = mnist_test)) |> 
  bind_cols(select(mnist_test, label)) |> 
  print() -> mnist_pred
#> # A tibble: 100 × 2
#>    .pred_class label
#>    <fct>       <fct>
#>  1 5           0    
#>  2 7           1    
#>  3 4           4    
#>  4 1           1    
#>  5 6           2    
#>  6 0           0    
#>  7 4           4    
#>  8 9           9    
#>  9 9           6    
#> 10 0           0    
#> # ℹ 90 more rows
…
