A recipes Extension for Persistent Homology and Its Vectorizations • tdarec
…
The points are sampled uniformly from one of two Klein bottle embeddings, determined by a coin toss between the flat and the tube.

# generate samples from two embeddings
set.seed(20024L)
tibble(embedding = sample(c("flat", "tube"), size = 48, replace = TRUE)) |> 
  mutate(sample = lapply(embedding, function(emb) {
    switch(
      emb,
      flat = tdaunif::sample_klein_flat(60, sd = .5),
      tube = tdaunif::sample_klein_tube(60, sd = .5)
    )
  })) |> 
  mutate(embedding = factor(embedding)) |>
  print() -> klein_data
#> # A tibble: 48 × 2
#>    embedding sample        
#>    <fct>     <list>        
#>  1 tube      <dbl [60 × 4]>
#>  2 tube      <dbl [60 × 4]>
#>  3 flat      <dbl [60 × 4]>
#>  4 flat      <dbl [60 × 4]>
#>  5 flat      <dbl [60 × 4]>
#>  6 flat      <dbl [60 × 4]>
#>  7 tube      <dbl [60 × 4]>
#>  8 tube      <dbl [60 × 4]>
#>  9 tube      <dbl [60 × 4]>
#> 10 flat      <dbl [60 × 4]>
#> # ℹ 38 more rows
…
